239	0	0	1	1	1	11
273	0	0	1	1	2	10
300	0	0	2	1	2	11
495	2	11	0	0	7	16
912	2	11	0	0	27	36
942	3	13	0	0	25	35
1114	4	15	0	0	23	34
1300	4	15	0	0	24	36
1480	4	15	0	0	23	36
1495	4	15	0	0	24	38
1502	4	15	0	0	4	40
1528	4	15	0	0	5	23
1548	5	17	0	0	3	22
1635	6	20	0	0	0	20
1703	6	20	1	1	0	23
1789	6	20	2	1	0	24
1791	6	20	3	1	0	25
1801	6	20	4	1	0	26
1846	6	20	5	1	0	27
1935	7	21	4	1	0	28
1977	10	28	1	1	9	39
2034	10	28	2	1	9	40
2235	10	28	3	1	9	41
2248	12	51	1	1	2	36
2257	12	51	2	1	2	37
2359	12	51	3	1	2	38
2535	15	63	0	1	10	48
2562	15	63	0	0	26	64
2712	16	65	0	0	24	63
2806	17	69	0	0	20	60
3157	17	69	0	0	21	62
3217	18	70	0	0	20	62
3323	19	74	0	0	16	59
3398	20	77	0	0	13	57
3535	21	79	0	0	11	56
3765	21	79	0	0	1	56
3790	21	79	0	0	21	67
3878	22	83	0	0	17	64
3879	23	84	0	0	16	64
4208	24	94	0	0	6	57
4237	24	94	1	1	6	60
4450	24	94	2	1	6	61
4508	24	94	3	1	6	62
4806	27	105	0	0	11	67
4810	27	105	0	0	10	67
5251	28	110	0	0	5	63
5508	28	110	1	1	5	66
5551	28	110	1	1	0	66
5856	29	116	0	0	10	72
5943	30	117	0	0	9	72
6091	30	117	0	0	29	92
6128	31	118	0	0	28	92
6259	32	129	0	0	17	82
6630	33	133	0	0	13	81
6637	34	135	0	0	11	80
6781	34	135	0	0	12	82
6898	35	136	0	0	11	82
6941	36	141	0	0	6	78
6942	36	141	0	0	7	80
6943	36	141	0	0	8	82
6983	36	141	0	0	3	82
7023	37	143	0	0	1	77
7197	37	143	1	1	1	80
7200	37	143	2	1	1	81
7239	37	143	2	1	1	82
7323	37	143	3	1	1	83
7536	38	153	2	1	7	91
7623	38	153	3	1	7	92
7691	41	176	0	0	0	85
7694	41	176	1	1	0	88
7774	41	176	2	1	0	89
7991	41	176	3	1	0	90
8007	44	188	0	0	4	94
8220	44	188	1	1	4	97
8307	44	188	2	1	4	98
8484	46	199	0	0	9	103
8605	47	206	0	0	2	97
8905	47	206	1	1	2	100
9052	48	209	0	0	15	113
9156	49	210	0	0	14	113
9505	50	217	0	0	7	107
9539	51	218	0	0	6	107
9785	52	219	0	0	5	107
9808	52	219	0	0	6	109
9905	53	221	0	0	4	108
9962	53	221	0	0	1	108
10149	53	221	1	1	1	109
10196	53	221	1	1	2	111
10247	53	221	2	1	2	112
10262	53	221	3	1	2	113
10358	56	239	0	0	0	111
10439	56	239	1	1	0	114
10648	56	239	2	1	0	115
10658	56	239	3	1	0	116
10760	59	252	0	0	3	119
10922	59	252	0	0	23	139
10992	60	253	0	0	22	139
11181	61	254	0	0	21	139
11223	62	255	0	0	20	139
11390	63	259	0	0	16	136
11442	64	260	0	0	15	136
11684	65	270	0	0	5	129
11719	66	274	0	0	1	126
11729	66	274	1	1	1	129
11751	66	274	1	1	2	131
11760	66	274	2	1	2	132
11879	66	274	2	1	1	132
11890	66	274	3	1	1	133
12019	66	274	3	1	2	135
12224	67	283	2	1	9	144
12319	67	283	3	1	9	145
12384	70	300	0	0	8	144
12434	71	302	0	0	6	143
12444	72	307	0	0	1	139
12617	72	307	1	1	1	142
12619	72	307	2	1	1	143
12744	72	307	3	1	1	144
12997	75	324	0	0	0	143
13218	75	324	1	1	0	146
13235	75	324	2	1	0	147
13297	75	324	3	1	0	148
13555	78	331	0	0	9	157
13580	78	331	0	0	10	159
13629	78	331	0	0	11	161
13813	79	338	0	0	4	155
13919	79	338	1	1	4	158
14113	79	338	2	1	4	159
14259	81	346	0	0	12	167
14325	82	347	0	0	11	167
14403	82	347	0	0	12	169
14553	83	350	0	0	9	167
14686	83	350	0	0	10	169
14809	84	351	0	0	9	169
15278	85	357	0	0	3	164
15542	85	357	1	1	3	167
15554	85	357	2	1	3	168
15578	85	357	3	1	3	169
15716	88	374	0	0	2	168
15801	88	374	1	1	2	171
16016	88	374	2	1	2	172
16033	90	381	0	0	11	181
16051	90	381	0	0	12	183
16325	91	386	0	0	7	179
16416	91	386	0	0	6	179
16450	92	388	0	0	4	178
16553	93	390	0	0	2	177
16646	93	390	0	0	1	177
16999	93	390	0	0	21	197
17179	94	391	0	0	20	197
17195	95	394	0	0	17	195
17358	96	398	0	0	13	194
17361	97	401	0	0	10	192
17587	98	404	0	0	7	190
17646	99	406	0	0	5	189
17654	99	406	0	0	1	189
17831	99	406	0	0	21	206
