590	1	1	0	0	0	8
731	1	0	1	1	0	8
890	1	0	2	1	0	9
1031	3	9	0	0	7	16
1121	4	11	0	0	5	15
1167	5	12	0	0	4	15
1276	5	12	1	1	4	18
1467	5	12	2	1	4	19
1491	7	28	0	0	4	19
1589	8	30	0	0	2	18
1705	9	31	0	0	1	18
2003	10	32	0	0	0	18
2112	10	32	1	1	0	21
2303	10	32	2	1	0	22
2875	12	40	0	0	8	30
3175	12	40	1	1	8	33
3438	13	50	0	0	14	39
3640	13	50	0	0	15	41
3736	14	55	0	0	10	37
3746	15	58	0	0	7	35
3933	15	58	1	1	7	38
4034	15	58	2	1	7	39
4046	15	58	3	1	7	40
4181	18	73	0	0	8	41
4719	18	73	0	0	9	43
4753	19	75	0	0	7	42
4849	20	82	0	0	0	36
5018	20	82	1	1	0	39
5107	20	82	2	1	0	40
5149	20	82	3	1	0	41
5186	21	93	2	1	5	48
5349	21	93	3	1	5	49
5442	21	93	4	1	5	50
5449	21	93	5	1	5	51
5617	26	112	0	0	2	48
5656	26	112	1	1	2	51
5659	26	112	2	1	2	52
5879	26	112	3	1	2	53
5917	26	112	3	1	3	55
6217	27	129	2	1	2	56
6317	29	139	0	0	8	62
6320	29	139	0	0	9	64
6384	30	143	0	0	5	61
6493	31	144	0	0	4	61
6838	31	144	0	0	5	63
7047	32	148	0	0	1	60
7078	32	148	0	0	2	62
7147	32	148	0	0	22	82
7200	33	150	0	0	20	81
7738	33	150	0	0	20	82
7885	34	154	0	0	16	79
7897	35	155	0	0	15	79
8023	36	161	0	0	9	76
8069	37	164	0	0	6	74
8078	38	165	0	0	5	74
8239	38	165	0	0	2	74
8394	38	165	0	0	3	74
8425	38	165	1	1	3	77
8483	38	165	2	1	3	78
8493	38	165	3	1	3	79
8694	38	165	3	1	2	79
8825	41	175	0	0	8	85
8867	41	175	0	0	9	87
9031	42	176	0	0	8	87
9116	43	182	0	0	2	82
9149	43	182	1	1	2	85
9273	43	182	2	1	2	86
9290	43	182	3	1	2	87
9416	43	182	4	1	2	88
9479	47	195	0	0	5	91
9520	47	195	1	1	5	94
9540	48	201	0	1	0	90
9584	48	201	1	1	0	91
9645	49	202	0	1	19	110
9659	50	205	0	1	16	108
9779	51	209	0	1	12	107
9974	51	209	0	0	28	123
10040	52	214	0	0	23	119
10163	53	215	0	0	22	119
10281	54	220	0	0	17	115
10346	55	226	0	0	11	110
10734	56	236	0	0	1	101
10845	57	237	0	0	0	101
10969	57	237	1	1	0	104
11145	57	237	2	1	0	105
11256	59	246	0	0	7	112
11309	60	253	0	0	0	106
11469	60	253	0	0	1	108
11654	61	254	0	0	0	108
11718	61	254	1	1	0	111
11722	61	254	2	1	0	112
11772	61	254	3	1	0	113
11914	61	254	4	1	0	114
11920	61	254	5	1	0	115
11954	61	254	6	1	0	116
11965	66	265	1	1	5	123
12153	66	265	1	1	6	125
12216	66	265	2	1	6	126
12254	66	265	3	1	6	127
12334	68	278	1	1	9	132
12554	68	278	2	1	9	133
12786	69	296	1	1	7	133
12854	69	296	2	1	7	134
12965	70	309	1	1	10	139
12999	70	309	2	1	10	140
13011	70	309	3	1	10	141
13154	70	309	4	1	10	142
13257	72	327	2	1	8	142
13352	74	344	0	1	11	147
13454	75	348	0	1	7	144
13461	75	348	0	0	23	160
13904	76	351	0	0	20	158
13965	77	363	0	0	8	147
14007	77	363	0	0	7	147
14103	77	363	1	1	7	150
14166	77	363	2	1	7	151
14246	77	363	3	1	7	152
14307	77	363	4	1	7	153
14335	81	384	0	0	2	148
14457	81	384	0	0	22	168
14595	82	396	0	0	10	159
14825	83	397	0	0	9	159
14900	84	401	0	0	5	156
15010	84	401	1	1	5	159
15033	85	408	0	1	18	172
15087	86	411	0	1	15	170
15200	87	419	0	1	7	165
15303	87	419	0	0	23	181
15461	88	428	0	0	14	173
15580	89	430	0	0	12	172
15677	89	430	1	1	12	175
15684	89	430	2	1	12	176
15719	89	430	3	1	12	177
15806	89	430	4	1	12	178
15880	89	430	5	1	12	179
16071	93	458	1	1	0	169
16090	93	458	2	1	0	170
16163	93	458	3	1	0	171
16180	93	458	4	1	0	172
16382	97	467	0	0	7	179
16396	98	473	0	0	1	174
16497	98	473	0	0	21	194
16542	99	479	0	0	15	189
16547	99	479	0	0	16	191
